[{"j":"Ivan","p":"Adamec","s":"ODS","v":"Bez odpovědi","o1":"","f":"adamec.jpg"},
{"j":"Věra","p":"Adámková","s":"ANO","v":"Bez odpovědi","o1":"","f":"adamkova.jpg"},
{"j":"Hana","p":"Aulická Jírovcová","s":"KSČM","v":"Pro vydání","o1":"Neznám další podrobnosti (případné) nové žádosti, ale myslím si, že se zachováme stejně jako na posledním hlasování. Říkali jsme, že policie by měla šetřit. Postupovali jsme stejně jako u našeho kolegy Jaroslava Borky. Pokud by nepřišly nějaké závažné argumenty, nevidíme důvod, proč bychom měli hlasovat jinak. ","f":"jirovcova.jpg"},
{"j":"Andrej","p":"Babiš","s":"ANO","v":"Bez odpovědi","o1":"","f":"babis.jpg"},
{"j":"Andrea","p":"Babišová","s":"ANO","v":"Nevím","o1":"Nemohu se vyjádřit k žádosti, která ještě nebyla podána a neznám její textový obsah. Pokud bude do sněmovny doručena, pak se s textem obeznámím, porovnám s textem první žádosti, zda jsou v nich nějaké rozdíly v obsahu. Teprve pak se mohu zodpovědně rozhodnout, jaké stanovisko osobně zaujmu.","f":"babisova.jpg"},
{"j":"Margita","p":"Balaštiková","s":"ANO","v":"Bez odpovědi","o1":"","f":"balastikova.jpg"},
{"j":"Dana","p":"Balcarová","s":"Piráti","v":"Pro vydání","o1":"Budeme hlasovat pro vydání u obou zmíněných.","f":"balcarova.jpg"},
{"j":"Lukáš","p":"Bartoň","s":"Piráti","v":"Pro vydání","o1":"Jsme pro vydání.","f":"barton.jpg"},
{"j":"Ivan","p":"Bartoš","s":"Piráti","v":"Pro vydání","o1":"","f":"bartos.jpg"},
{"j":"Jan","p":"Bartošek","s":"KDU-ČSL","v":"Pro vydání","o1":"V takovém případě budu hlasovat pro vydání.","f":"bartosek.jpg"},
{"j":"Jan","p":"Bauer","s":"ODS","v":"Pro vydání","o1":"Pokud se neobjeví nějaké skutečnosti, tak budu respektovat to, jak se rozhodl mandátový a imunitní výbor a jak se rozhodla minulá sněmovna. ","f":"bauer.jpg"},
{"j":"Martin","p":"Baxa","s":"ODS","v":"Pro vydání","o1":"Předpokládám, že pokud k tomu dojde, tak že k tomu zaujme poslanecký klub ODS názor. Ale předpokládám, že by se zachoval stejně jako předtím, to znamená, že by poslanci hlasovali pro vydání obou zmíněných pánů.","f":"baxa.jpg"},
{"j":"Jiří","p":"Běhounek","s":"ČSSD","v":"Pro vydání","o1":"Dojde-li nová žádost, budu hlasovat jako minulé hlasování.","f":"behounek.jpg"},
{"j":"Petr","p":"Beitl","s":"ODS","v":"Pro vydání","o1":"Předpokládám, že pan Babiš a pan Faltýnek udělají to, co minule, a požádají sněmovnu, aby je vydala. Připadá mi to logické, před zákonem bychom si měli být všichni rovni. Kauza, kvůli které mají být vydáni, nemá souvislost s jejich poslaneckým mandátem. (Takže byste byl pro?) Očekával bych od obou pánů, že nás do této situace vůbec nedostanou. (Takže byste byl pro?) Z toho, co jsem řekl, vyplývá, že bych hlasoval pro. Ale přišlo by to poněkud podivné.","f":"beitl.jpg"},
{"j":"Josef","p":"Bělica","s":"ANO","v":"Nevím","o1":"Kdyby byly v rybníku ryby, učila mě vždycky babička. Já na to budu reagovat až v okamžiku, kdy to bude skutkem. A nebudu se pouštět do žádných spekulací. Já osobně si myslím, že celá ta kauza je vykonstruovaná. Počkám si na to, pokud se to stane, jaké budou předložené argumenty a doklady.","f":"belica.jpg"},
{"j":"Pavel","p":"Bělobrádek","s":"KDU-ČSL","v":"Pro vydání","o1":"Jako minule.","f":"belobradek.jpg"},
{"j":"Marek","p":"Benda","s":"ODS","v":"Pro vydání","o1":"Pro vydání.","f":"benda.jpg"},
{"j":"Petr","p":"Bendl","s":"ODS","v":"Pro vydání","o1":"Stejně jako poslanecký klub. Určitě o tom budeme jednat, pochybuji, že bychom hlasovali jinak, než jsme hlasovali minule. Určitě nebudeme hlasovat jinak, to znamená asi pro vydání.","f":"bendl.jpg"},
{"j":"Ondřej","p":"Benešík","s":"KDU-ČSL","v":"Pro vydání","o1":"Tak, jak jsem hlasoval posledně, tedy pro. To je věc, kterou musí rozhodnout soud, nikoli sněmovna. Sněmovna pouze umožní, aby bylo učiněno zadost spravedlnosti. Není to nic proti panu Babišovi ani Faltýnkovi. Já jsem vždy zvažoval, když bylo takové vydání, nikdy jsem to nedělal paušálně. Tady ale řekli, že chtějí být vydáni, a v průběhu celého volebního období říkali, že takovou věc, jako je poslanecká imunita, neuznávají a že u nich v hnutí se to opakovat nebude.","f":"benesik.jpg"},
{"j":"Stanislav","p":"Berkovec","s":"ANO","v":"Nevím","o1":"My už jsme se k tomu jednou postavili, absolutně jsme s tím nesouhlasili a odešli jsme ze sněmovny. A pan Faltýnek a pan Babiš hlasovali pro svoje vlastní vydání. Budu opět po poradě s poslaneckým klubem reagovat tak, jak se domluvíme. Tuhle mediální štvanici považujeme za naprosto nedůstojnou. Dobře víte, jak se vytváří veřejné mínění. A každý, kdo měl možnost nahlédnout do té žádosti o vydání... To je právní paskvil. Jak se domluví náš poslanecký klub, tak budeme reagovat. Nejsem tam za Berkovce, jsem tam za hnutí ANO.","f":"berkovec.jpg"},
{"j":"Jan","p":"Birke","s":"ČSSD","v":"Pro vydání","o1":"Budu hlasovat stejně jako v předchozím hlasování, to znamená pro vydání. Jsem dost starý na to, abych měnil názor.","f":"birke.jpg"},
{"j":"Stanislav","p":"Blaha","s":"ODS","v":"Pro vydání","o1":"Samozřejmě že ano.","f":"blaha.jpg"},
{"j":"Jiří","p":"Bláha","s":"ANO","v":"Nevím","o1":"Já si myslím, že to budu řešit až v danou chvíli. Budu se rozhodovat podle nějakých aspektů, které budou v tu chvíli důležité. To znamená, že třeba i dotaz na pana Babiše s panem Faltýnkem, jak to vlastně chtějí.","f":"blaha2.jpg"},
{"j":"Pavel","p":"Blažek","s":"ODS","v":"Nevím","o1":"Andrej Babiš před časem řekl, že má k případu nové informace. Až si je vyslechnu, pokud jsou, rozhodnu se.","f":"blazek.jpg"},
{"j":"Marian","p":"Bojko","s":"SPD","v":"Bez odpovědi","o1":"","f":"bojko.jpg"},
{"j":"Richard","p":"Brabec","s":"ANO","v":"Proti vydání","o1":"Velmi pravděpodobně bych se zachoval jako v prvním případě, pokud se mezitím nic nestane. Odešli jsme ze sálu, žádost, respektive celou tu kauzu považujeme za vyfabulovanou, proto jsme se tak zachovali. Nicméně uvidíme, jak se zachová nový klub, protože tam bude i celá řada dalších lidí. Zda bude závazné hlasování, nebo nebude. Za sebe mohu říct, že bych se nezachoval jinak než v prvním případě. Nemám k tomu důvod.","f":"brabec.jpg"},
{"j":"Milan","p":"Brázdil","s":"ANO","v":"Nevím","o1":"Nebudu se vyjadřovat. Kdyby bylo... Zatím se vyjadřovat nebudu.","f":"brazdil.jpg"},
{"j":"Andrea","p":"Brzobohatá","s":"ANO","v":"Proti vydání","o1":"Rozhodně bych ho za sebe určitě nevydala. Je to spíše osobní věc pana Babiše, takže za mě si myslím, že určitě ne. Ani pana Faltýnka.","f":"brzobohata.jpg"},
{"j":"Jaroslav","p":"Bžoch","s":"ANO","v":"Nevím","o1":"V tomhle případě bych hlasoval tak, jak se usneseme na klubu.","f":"bzoch.jpg"},
{"j":"Lukáš","p":"Černohorský","s":"Piráti","v":"Pro vydání","o1":"","f":"cernohorsky.jpg"},
{"j":"Jana","p":"Černochová","s":"ODS","v":"Pro vydání","o1":"Ano, vždyť se nic nezměnilo, takže nevidím důvod, proč bych měla svoje hlasování ohledně vydání pana Babiše a pana Faltýnka po pár týdnech změnit.","f":"cernochova.jpg"},
{"j":"Alexander","p":"Černý","s":"KSČM","v":"Pro vydání","o1":"Budu pro vydání.","f":"cerny.jpg"},
{"j":"Jan","p":"Čižinský","s":"KDU-ČSL","v":"Pro vydání","o1":"Budu hlasovat pro vydání.","f":"cizinsky.jpg"},
{"j":"Jiří","p":"Dolejš","s":"KSČM","v":"Nevím","o1":"Pokud policie požádá, to je, myslím, zajímavá podmínka, protože předpokládám, že policista to bude konzultovat se státním zastupitelstvím, a teprve na základě toho napíše žádost. Pochopitelně platí to, že pokud by to bylo jako přes kopírák, tak se nedá zdůvodnit, proč bychom hlasovali jinak. Ale pochopitelně že kromě našeho obecného argumentu, že mandát nemá být bariérou při řádném právním prošetření případného trestného činu, tak je důležitý názor dozorujícího státního zástupce. Je to s touto podmínkou. Policejní spis i názor státního zastupitelství se může vyvíjet. Dříve než do ustanovení imunitního výboru žádost nebudeme moct projednat. A předpokládám, že žádost by mohla odrážet případný vývoj ve věci. Kdyby to bylo jak přes kopírák, tak jak říkám, těžko zdůvodnit, že bychom hlasovali jinak. ","f":"dolejs.jpg"},
{"j":"Petr","p":"Dolínek","s":"ČSSD","v":"Bez odpovědi","o1":"","f":"dolinek.jpg"},
{"j":"Klára","p":"Dostálová","s":"ANO","v":"Nevím","o1":"Vzhledem k tomu, že jsem přesvědčena o tom, že je to vykonstruovaná kauza, tak v rámci klubu se poradíme. Na druhou stranu jsem přesvědčena, že pan Babiš ani pan Faltýnek nemají co skrývat a že se ukáže, že nic neprovedli. Takže jsem přesvědčena o tom, že i oni sami budou chtít být vydáni, aby se pravda mohla projevit.","f":"dostalova.jpg"},
{"j":"Lenka","p":"Dražilová","s":"ANO","v":"Nevím","o1":"To je strašně těžké, protože já o tom všem vím... Takhle to řeknu: sama za sebe bych hlasovala pro nevydání. Ale o tom všem vím jen z médií. Takže nejprve se - předpokládám, že budu mít možnost - se vším seznámím a potom se rozhodnu na místě. Ta odpověď je skutečně těžká.","f":"drazilova.jpg"},
{"j":"Jaroslav","p":"Dvořák","s":"SPD","v":"Bez odpovědi","o1":"","f":"dvorak.jpg"},
{"j":"František","p":"Elfmark","s":"Piráti","v":"Pro vydání","o1":"","f":"elfmark.jpg"},
{"j":"Jaroslav","p":"Faltýnek","s":"ANO","v":"Bez odpovědi","o1":"","f":"faltynek.jpg"},
{"j":"Kamal","p":"Farhan","s":"ANO","v":"Proti vydání","o1":"Dvě věci k tomu řeknu. Nevím, jak ta žádost bude vypadat, takže se k ní nemůžu implicitně vyjádřit. Na druhou stranu k tomu, co vím v dnešní době, tak bych hlasoval proti vydání.","f":"farhan.jpg"},
{"j":"Jan","p":"Farský","s":"STAN","v":"Pro vydání","o1":"Vydat. V obou případech. Tak jako vždy v minulosti. Věřím více v právní stát než ve slova pana Babiše a Faltýnka.","f":"farsky.jpg"},
{"j":"Milan","p":"Feranec","s":"ANO","v":"Nevím","o1":"Já nemůžu říkat… Já se vás zeptám: 5. února si vezmete, když budete venku, kožich nebo lehký plášť. Já nevím, žádost jsem neviděl, takže vyjadřovat se k něčemu je zbytečné.","f":"feranec.jpg"},
{"j":"Dominik","p":"Feri","s":"TOP 09","v":"Pro vydání","o1":"Vydat! ","f":"feri.jpg"},
{"j":"Mikuláš","p":"Ferjenčík","s":"Piráti","v":"Pro vydání","o1":"","f":"ferjencik.jpg"},
{"j":"Radim","p":"Fiala","s":"SPD","v":"Bez odpovědi","o1":"","f":"fiala2.jpg"},
{"j":"Petr","p":"Fiala","s":"ODS","v":"Pro vydání","o1":"Důvody pro vydání obou poslanců ANO zůstávají stejné, takže není důvod, proč bychom stejně i nehlasovali - tedy pro jejich vydání.","f":"fiala.jpg"},
{"j":"Eva","p":"Fialová","s":"ANO","v":"Nevím","o1":"Asi se k této otázce nechci vyjadřovat. Neznám tu kauzu do detailů. Bude potřeba si některé věci k tomu načíst, zjistit další informace. Jedna věc je, co probíhá v médiích, a jedna, co je skutečnost. Budu se rozhodovat, až ta situace nastane.","f":"fialova.jpg"},
{"j":"Vojtěch","p":"Filip","s":"KSČM","v":"Nevím","o1":"Až si to přečtu, tak vám řeknu. Chcete po mně názor na předložený trestní spis, který jsem nečetl. Bylo sděleno obvinění, byla podána stížnost, tak pravděpodobně ta nová žádost bude asi obsahovat i reakci na tyto stížnosti. Já to nevím. Odpovím ano, nebo ne, až se s tím seznámím.","f":"filip.jpg"},
{"j":"Jaroslav","p":"Foldyna","s":"ČSSD","v":"Pro vydání","o1":"Jako předtím, pro vydání. (Nejsou) žádné skutečnosti, které by měly něco měnit. ","f":"foldyna.jpg"},
{"j":"Stanislav","p":"Fridrich","s":"ANO","v":"Nevím","o1":"Tohle určitě probereme na klubu. Už jednou sněmovna pana Babiše a pana Faltýnka vydala, takže si myslím, že se to do budoucna zopakuje. Jasný názor na to ale nemám.","f":"fridrich.jpg"},
{"j":"Alena","p":"Gajdůšková","s":"ČSSD","v":"Pro vydání","o1":"Vždycky jsem pro vydání hlasovala, protože jsem přesvědčena, že senátor nebo poslanec by neměli mít jiné podmínky než řadový občan.","f":"gajduskova.jpg"},
{"j":"Petr","p":"Gazdík","s":"STAN","v":"Pro vydání","o1":"Ještě jsme o tom nejednali. Ale názory neměním. Posledně jsem hlasoval pro.","f":"gazdik.jpg"},
{"j":"Pavla","p":"Golasowská","s":"KDU-ČSL","v":"Bez odpovědi","o1":"","f":"golasowska.jpg"},
{"j":"Miroslav","p":"Grebeníček","s":"KSČM","v":"Pro vydání","o1":"Jako v minulém období, to znamená pro vydání. Proč bych měl suplovat policii, zastupitelské úřady, případně soud? To mně nepřísluší.","f":"grebenicek.jpg"},
{"j":"Stanislav","p":"Grospič","s":"KSČM","v":"Pro vydání","o1":"Hlasoval bych konzistentně jako předtím. Myslím si, že by ta věc měla být posouzena orgány činnými v trestním řízení a soudy, protože se domnívám, že to je nejjednodušší způsob, i pro ně dva, aby ze sebe to obvinění smyli. Bez ohledu na to, jaké je.","f":"grospic.jpg"},
{"j":"Josef","p":"Hájek","s":"ANO","v":"Nevím","o1":"V této chvíli se mi váš dotaz její jako předčasný. Pokud taková situace nastane, určitě se rozhodnu podle svého svědomí a vědomí.","f":"hajek.jpg"},
{"j":"Jan","p":"Hamáček","s":"ČSSD","v":"Pro vydání","o1":"Pro vydání.","f":"hamacek.jpg"},
{"j":"Tomáš","p":"Hanzel","s":"ČSSD","v":"Pro vydání","o1":"Ano, hlasoval bych pro vydání.","f":"hanzel.jpg"},
{"j":"Jiří","p":"Hlavatý","s":"ANO","v":"Nevím","o1":"Až přijde nějaká žádost do Poslanecké sněmovny, tak se tím budu zabývat.","f":"hlavaty.jpg"},
{"j":"Milan","p":"Hnilička","s":"ANO","v":"Bez odpovědi","o1":"","f":"hnilicka.jpg"},
{"j":"Jaroslav","p":"Holík","s":"SPD","v":"Nevím","o1":"Jednotně s poslaneckým klubem SPD. Klub tuto situaci zatím neřešil.","f":"holik.jpg"},
{"j":"Radek","p":"Holomčík","s":"Piráti","v":"Pro vydání","o1":"","f":"holomcik.jpg"},
{"j":"Jan","p":"Hrnčíř","s":"SPD","v":"Bez odpovědi","o1":"","f":"hrncir.jpg"},
{"j":"Tereza","p":"Hyťhová","s":"SPD","v":"Pro vydání","o1":"Jelikož už se o tom jednou hlasovalo a naši poslanci hlasovali pro vydání, myslím, že se to nebude měnit a samozřejmě celý náš klub bude hlasovat pro vydání, jelikož už tak jednou bylo hlasováno.","f":"hythova.jpg"},
{"j":"Milan","p":"Chovanec","s":"ČSSD","v":"Bez odpovědi","o1":"","f":"chovanec.jpg"},
{"j":"Jan","p":"Chvojka","s":"ČSSD","v":"Pro vydání","o1":"Tak jako v minulém funkčním období budu hlasovat v obou případech pro vydání.","f":"chvojka.jpg"},
{"j":"Ivan","p":"Jáč","s":"ANO","v":"Nevím","o1":"Já se vám k tomu nebudu vyjadřovat, nic o tom nevím.","f":"jac.jpg"},
{"j":"Jakub","p":"Janda","s":"ODS","v":"Pro vydání","o1":"Samozřejmě jsem pro vydání pana Babiše a pana Faltýnka.","f":"janda.jpg"},
{"j":"Miloslav","p":"Janulík","s":"ANO","v":"Nevím","o1":"Musel bych tu žádost vidět a přečíst si ji a taky by dost záleželo na tom, co nám bude doporučovat mandátový a imunitní výbor. Není mi známo, že by se objevily nějaké zásadní nové skutečnosti a ta minulá žádost byla naprosto ubohá. Jestli pan policista zjistil nové věci, nevíme nikdo. Takže počkáme, pokud ta žádost bude vůbec podána, protože na státní zastupitelství byla podána stížnost.","f":"janulik.jpg"},
{"j":"Monika","p":"Jarošová","s":"SPD","v":"Bez odpovědi","o1":"","f":"jarosova.jpg"},
{"j":"Pavel","p":"Jelínek","s":"SPD","v":"Pro vydání","o1":"Já budu hlasovat pro vydání. Zatím je to názor celé SPD a na tom se pravděpodobně nic měnit nebude.","f":"jelinek.jpg"},
{"j":"Martin","p":"Jiránek","s":"Piráti","v":"Pro vydání","o1":"V souladu s naším poslaneckým klubem. Všichni jsme se shodli, že budeme pro vydání. Ať to policie vyšetří, nechceme dělat soudce ani policii. Takže budeme pro vydání.","f":"jiranek.jpg"},
{"j":"Aleš","p":"Juchelka","s":"ANO","v":"Nevím","o1":"Budu hlasovat tak, jak se domluvíme na klubu. Mám na to svůj vlastní názor, ale domnívám se, že když bylo minulé hlasování, pan Babiš dokonce sám deklaroval, aby bylo v jeho neprospěch, nebo v jeho prospěch, aby byl zbaven imunity. Tak uvidím, jak to dopadne teď. Nemám důvod říct, že to dopadne jinak.","f":"juchelka.jpg"},
{"j":"Stanislav","p":"Juránek","s":"KDU-ČSL","v":"Proti vydání","o1":"Ještě nikdy jsem nehlasoval pro vydání žádného senátora, když jsem byl členem Senátu. A nemám v plánu hlasovat pro vydání kohokoli, protože myslím, že ochrana, která je, není ochranou lidí, ale ochranou orgánu, tedy Poslanecké sněmovny.","f":"juranek.jpg"},
{"j":"Marian","p":"Jurečka","s":"KDU-ČSL","v":"Pro vydání","o1":"Stejně jako předtím, pro vydání.","f":"jurecka.jpg"},
{"j":"Pavel","p":"Juříček","s":"ANO","v":"Nevím","o1":"Dobrá otázka. Asi bych nejspíš ze sněmovny také odešel. Je to hodně zkreslené, hodně účelově vázané. Nechtěl bych soudit, všechny detaily nevím, ale to by se tu musely zavřít desetitisíce lidí. Takhle to tady fungovalo v minulosti před deseti lety naprosto normálně. Proč zrovna jeden, a ne ti ostatní. Jestli i on, tak ať se sakra zavřou všichni ti, kdo měli příjmy z dotací, tehdy se rozjely, pokud si to dobře pamatuji, asi 4,6 miliardy korun. Ať je spravedlnost, zase jenom pro někoho, a pro někoho ne.","f":"juricek.jpg"},
{"j":"Adam","p":"Kalous","s":"ANO","v":"Nevím","o1":"To nedokážu v tuto chvíli posoudit. Jako nový poslanec k tomu nemám žádné informace.","f":"kalous.jpg"},
{"j":"Miroslav","p":"Kalousek","s":"TOP 09","v":"Pro vydání","o1":"Není pochyb o tom, že ano. Nic se od té doby nezměnilo. Otázka samozřejmě je, jestli ta žádost dojde. Dojde-li, budeme hlasovat pro vydání.","f":"kalousek.jpg"},
{"j":"Vít","p":"Kaňkovský","s":"KDU-ČSL","v":"Pro vydání","o1":"Budu hlasovat pro vydání. Nesouvisí to s politikou, ale s tím, že by se mělo standardně postupovat u všech občanů, politiky nevyjímaje.","f":"kankovsky.jpg"},
{"j":"David","p":"Kasal","s":"ANO","v":"Nevím","o1":"Už z povahy mého lékařského povolání neřeším co by, kdyby. Až do sněmovny dorazí žádost Policie ČR a seznámím se s jejím obsahem, pak se zodpovědně rozhodnu podle svého svědomí.","f":"kasal.jpg"},
{"j":"Václav","p":"Klaus","s":"ODS","v":"Bez odpovědi","o1":"","f":"klaus.jpg"},
{"j":"Jiří","p":"Kobza","s":"SPD","v":"Bez odpovědi","o1":"","f":"kobza.jpg"},
{"j":"Jiří","p":"Kohoutek","s":"SPD","v":"Bez odpovědi","o1":"","f":"kohoutek.jpg"},
{"j":"Tomáš","p":"Kohoutek","s":"ANO","v":"Nevím","o1":"V každém případě bych chtěl být se žádostí seznámen, zatím nejsem schopen říct. Vím zatím jen to, co bylo mediálně známo. A jako právník jsem zvyklý, že rozhodně si chci věci prostudovat a mít o nich nějaké bližší informace a nedám na to, co se uvádí v médiích. Teď jednoznačně říct nemůžu, protože jsem se žádostí nebyl seznámen.","f":"kohoutek2.jpg"},
{"j":"Lukáš","p":"Kolářík","s":"Piráti","v":"Pro vydání","o1":"","f":"kolarik.jpg"},
{"j":"Martin","p":"Kolovratník","s":"ANO","v":"Bez odpovědi","o1":"","f":"kolovratnik.jpg"},
{"j":"Vladimír","p":"Koníček","s":"KSČM","v":"Pro vydání","o1":"Pokud bude žádost stejná jako minule, tak stejně jako minule, tedy PRO vydání.","f":"konicek.jpg"},
{"j":"František","p":"Kopřiva","s":"Piráti","v":"Pro vydání","o1":"Sám od sebe bych hlasoval pro vydání. Takto jsme se i jednomyslně rozhodli na klubu. Celý pirátský klub bude hlasovat pro opětovné vydání.","f":"kopriva.jpg"},
{"j":"Barbora","p":"Kořanová","s":"ANO","v":"Pro vydání","o1":"Tohle téma jako vystudovaný právník nemám hrozně ráda, ctím presumpci neviny. Hlasovala bych ale pro, pan Babiš by se z toho měl dokonale vyvinit, aby přestal tenhle hon na čarodějnice. Dokud soud pravomocně nerozhodne, beru ho jako nevinného.","f":"koranova.jpg"},
{"j":"Radek","p":"Koten","s":"SPD","v":"Bez odpovědi","o1":"","f":"koten.jpg"},
{"j":"Josef","p":"Kott","s":"ANO","v":"Proti vydání","o1":"Ani před prvním hlasování jsem nesouhlasil s vydáním. Svůj názor jsem nezměnil.","f":"kott.jpg"},
{"j":"Pavel","p":"Kováčik","s":"KSČM","v":"Nevím","o1":"Jistě se tímto bude zabývat klub. My jsme to ještě vůbec neprobírali, znovu věc projednáme.","f":"kovacik.jpg"},
{"j":"Věra","p":"Kovářová","s":"STAN","v":"Pro vydání","o1":"Ještě jsme o tom nejednali, ale předpokládám, že budeme hlasovat stejně.","f":"kovarova.jpg"},
{"j":"Lenka","p":"Kozlová","s":"Piráti","v":"Pro vydání","o1":"Samozřejmě. Pokaždé, když bude hlasování o vydání, budeme hlasovat pro vydání.","f":"kozlova.jpg"},
{"j":"Robert","p":"Králíček","s":"ANO","v":"Nevím","o1":"To je zapeklitá otázka. Určitě bych potřeboval vědět informace z žádosti, čeho by se týkaly. Neviděl jsem ani tu prvotní, takže na to teď nemám jednoznačnou odpověď. Vycházelo by to ze spousty faktorů, ale neumím odpovědět, jak bych se zachoval. Určitě by mě zajímaly detaily z žádosti, protože první žádost jsem zaznamenával pouze z médií, k detailním informacím jsem neměl přístup. A ty informace byly mnohdy různorodé, možná i zkreslené, takže nedokážu posoudit chování poslanců, proč tak hlasovali. Po důkladném seznámení se s žádostí bych byl schopen říct verdikt. Ale v současné době si myslím, že je to předčasné.","f":"kralicek.jpg"},
{"j":"Karel","p":"Krejza","s":"ODS","v":"Pro vydání","o1":"Ano.","f":"krejza.jpg"},
{"j":"Jana","p":"Krutáková","s":"STAN","v":"Nevím","o1":"To ještě nevím. Musím říct, že je všechno strašně čerstvé, teprve se se vším seznamuji, tak daleko jsem nepřemýšlela. Ani na poslaneckém klubu na toto téma nepřišla řeč.","f":"krutakova.jpg"},
{"j":"Roman","p":"Kubíček","s":"ANO","v":"Bez odpovědi","o1":"","f":"kubicek.jpg"},
{"j":"Jan","p":"Kubík","s":"ANO","v":"Nevím","o1":"Nemám v tom ještě úplně jasno, protože abych se přiznal, ještě jsem k tomu neviděl ani jeden papír, v podstatě nic. Teď vám neodpovím. Žádný papír jsem ještě neměl na očích. Kromě toho, co proběhlo v médiích, k tomu žádnou informaci nemám.","f":"kubik.jpg"},
{"j":"Jaroslav","p":"Kytýr","s":"ANO","v":"Pro vydání","o1":"To je velice zajímavá otázka. Domnívám se, když bych měl mluvit pouze za sebe, že ano. Pokud by měla tato kauza pokračovat, je nutné, aby soudy nezávisle posoudily, co je na tom pravdy a nepravdy.","f":"kytyr.jpg"},
{"j":"Helena","p":"Langšádlová","s":"TOP 09","v":"Pro vydání","o1":"Vydat.","f":"langsadlova.jpg"},
{"j":"Jana","p":"Levová","s":"SPD","v":"Nevím","o1":"Tohle bude na pořadu dne při jednání klubu, takže tohle bude stoprocentně rozhodnutí klubu a nebudu se k tomu vůbec vyjadřovat, protože budeme jako klub jednotní.","f":"levova.jpg"},
{"j":"Jan","p":"Lipavský","s":"Piráti","v":"Pro vydání","o1":"Je to tak, že na našem prvním jednání poslaneckého klubu jsme se jednomyslně usnesli, že bychom hlasovali pro takovou žádost, pro vydání. A já osobně to také zastávám, nechť se to vyšetří.","f":"lipavsky.jpg"},
{"j":"Leo","p":"Luzar","s":"KSČM","v":"Pro vydání","o1":"Úplně stejně jako v prvním kole. Předpokládám, že přijde tatáž žádost, čili tam budu hlasovat úplně stejně. Pro vydání.","f":"luzar.jpg"},
{"j":"Zuzana","p":"Majerová Zahradníková","s":"ODS","v":"Pro vydání","o1":"Jednoznačně ano.","f":"zahradnikova.jpg"},
{"j":"Taťána","p":"Malá","s":"ANO","v":"Nevím","o1":"To je předčasná otázka. Já bych se v první řadě velmi ráda seznámila se skutečnými důvody, které by proto vydání byly. Z těch informací, které jsem do této chvíle měla, tak to ve mně vzbuzuje velké pochybnosti. Podklady jsem ale neviděla, takže bych se rozhodla až ve chvíli, kdy bych měla k dispozici ty materiály.","f":"mala.jpg"},
{"j":"Přemysl","p":"Mališ","s":"ANO","v":"Nevím","o1":"Nad tím jsem přemýšlel, pravděpodobně v současné chvíli asi pro vydání. Ale zatím nejsem úplně rozhodnut a bůhví, jak to bude.","f":"malis.jpg"},
{"j":"Tomáš","p":"Martínek","s":"Piráti","v":"Pro vydání","o1":"Ano (pro vydání).","f":"martinek.jpg"},
{"j":"Jaroslav","p":"Martinů","s":"ODS","v":"Pro vydání","o1":"Já jsem byl účasten v Parlamentu za vlády Petra Nečase, měli jsme tam podobné hlasování. Pro nás je hnutí ANO politický rival, tak bych byl rád, kdyby se pan Babiš očistil normální slušnou cestou, a to u soudu. Určitě bych tak hlasoval pro vydání pana Babiše, je to i v jeho zájmu, aby se očistil.","f":"martinu.jpg"},
{"j":"Karla","p":"Maříková","s":"SPD","v":"Bez odpovědi","o1":"","f":"marikova.jpg"},
{"j":"Jiří","p":"Mašek","s":"ANO","v":"Nevím","o1":"Byl bych rád, kdybych se mohl seznámit s obsahem žádosti a s jejím dokladováním. V obecné rovině jsem pro vydávání a v konkrétním případě vždy po posouzení předložených materiálů. Nevím, oba pánové podali stížnost, to je jedna věc. Je otázka, jak na ní bude reagováno. A druhá věc je, že musí přijít žádost a její odůvodnění, s tím bych se rád seznámil a podle toho se rozhodnu.","f":"masek.jpg"},
{"j":"Květa","p":"Matušovská","s":"KSČM","v":"Bez odpovědi","o1":"","f":"matusovska.jpg"},
{"j":"Ilona","p":"Mauritzová","s":"ODS","v":"Pro vydání","o1":"Stanovisko je takové, že pro trestní stíhání nepominuly důvody. A proto - pokud by důvody byly stejné jako předtím, tak bychom hlasovali pro vydání.","f":"mauritzova.jpg"},
{"j":"Radka","p":"Maxová","s":"ANO","v":"Bez odpovědi","o1":"","f":"maxova.jpg"},
{"j":"Marcela","p":"Melková","s":"ANO","v":"Nevím","o1":"K tomuto se z místa nevyjádřím, protože skutečně jsem nečetla celé posudky, výstupy z vyšetřování, veškeré tisíce a tisíce stran, které z toho vzešly. Z místa se k tomu nevyjádřím.","f":"melkova.jpg"},
{"j":"Jiří","p":"Mihola","s":"KDU-ČSL","v":"Bez odpovědi","o1":"","f":"mihola.jpg"},
{"j":"Jakub","p":"Michálek","s":"Piráti","v":"Pro vydání","o1":"Pro vydání.","f":"michalek.jpg"},
{"j":"Vojtěch","p":"Munzar","s":"ODS","v":"Pro vydání","o1":"Budu hlasovat pro.","f":"munzar.jpg"},
{"j":"Patrik","p":"Nacher","s":"ANO","v":"Nevím","o1":"Na tuhle otázku budu odpovídat v momentě, kdy bude aktuální. To znamená v momentě, kdy budu poslanec, složím slib a žádost ve sněmovně bude a já se seznámím s materiály. Pak nemám problém veřejně říct, jaký mám názor. Řeknu vám proč: mám jednu praktickou zkušenost z komunální politiky, kdy se mě novináři ptali, zda bych zasedl v radě, ve které by byl odsouzený Karel Březina. A odpovídal jsem úplně stejně: zeptejte se mě na to ve chvíli, až ČSSD nominuje Karla Březinu do rady. Výsledkem mojí reakce byl to, že jsem nekomentoval spekulativní věc, která se ani nenaplnila.","f":"nacher.jpg"},
{"j":"Miroslava","p":"Němcová","s":"ODS","v":"Pro vydání","o1":"Budu hlasovat stejně jako poprvé, pro vydání. Jsem přesvědčena, že policie má mít možnost vše vyšetřit. Nemáme ji proto, aby chránila mocné a postihovala ty druhé. Nesmí měřit dvojím metrem ani se dát zastrašit. ","f":"nemcova.jpg"},
{"j":"Ivana","p":"Nevludová","s":"SPD","v":"Bez odpovědi","o1":"","f":"nevludova.jpg"},
{"j":"Marek","p":"Novák","s":"ANO","v":"Nevím","o1":"Zatím nemám text žádosti. Pokud budu hlasovat, tak dle svého nejlepšího vědomí a svědomí.","f":"novak.jpg"},
{"j":"Monika","p":"Oborná","s":"ANO","v":"Proti vydání","o1":"Vzhledem k současnému dění bych určitě hlasovala proti vydání.","f":"oborna.jpg"},
{"j":"Tomio","p":"Okamura","s":"SPD","v":"Bez odpovědi","o1":"","f":"okamura.jpg"},
{"j":"Ladislav","p":"Okleštěk","s":"ANO","v":"Bez odpovědi","o1":"","f":"oklestek.jpg"},
{"j":"Roman","p":"Onderka","s":"ČSSD","v":"Pro vydání","o1":"Až dorazí žádost, tak předpokládám, že tam bude vyjádření mandátového a imunitního výboru. A jelikož jsem neseděl v Poslanecké sněmovně, tak jsem neměl možnosti si odůvodnění v minulém vydávání načíst. Budu reagovat pouze z informací, které mám z médií. Myslím si, že Poslanecká sněmovna není nezávislým soudem, a ten může pouze rozhodnout o vině a nevině. To znamená, že bych hlasoval pro vydání. Jsem přesvědčen z těch zpráv, které mám nyní k dispozici, že tato činnost, za kterou byl pan Babiš minule vydán, nebyla činností politickou a nestala se v průběhu jeho politického mandátu.","f":"onderka.jpg"},
{"j":"Zdeněk","p":"Ondráček","s":"KSČM","v":"Pro vydání","o1":"Vzhledem k tomu, že to nesouvisí s výkonem mandátu ani jednoho z pánů poslanců a má to historii dozadu, nevidím důvod, proč bych neměl hlasovat stejně jako předtím. Pro vydání.","f":"ondracek.jpg"},
{"j":"Zuzana","p":"Ožanová","s":"ANO","v":"Bez odpovědi","o1":"","f":"ozanova.jpg"},
{"j":"Jana","p":"Pastuchová","s":"ANO","v":"Bez odpovědi","o1":"","f":"pastuchova.jpg"},
{"j":"Daniel","p":"Pawlas","s":"KSČM","v":"Pro vydání","o1":"Určitě bych hlasoval pro vydání. Pokud by se nezměnily okolnosti, zachoval bych se jako bývalá Poslanecké sněmovna. Myslím, že to je nejsprávnější. Pokud Andrej Babiš tvrdí, že nic nespáchal, je to nejčistší forma, jak se očistit.","f":"pawlas.jpg"},
{"j":"Markéta","p":"Pekarová Adamová","s":"TOP 09","v":"Pro vydání","o1":"Rozhodně vydat. Hlasovat budu stejně jako před pár týdny, nevidím důvod na svém postoji cokoliv měnit.","f":"adamova.jpg"},
{"j":"Mikuláš","p":"Peksa","s":"Piráti","v":"Pro vydání","o1":"","f":"peksa.jpg"},
{"j":"Robert","p":"Pelikán","s":"ANO","v":"Bez odpovědi","o1":"","f":"pelikan.jpg"},
{"j":"František","p":"Petrtýl","s":"ANO","v":"Proti vydání","o1":"Teď jsem to (téma) vypustil, nebylo to na programu dne. Teď skutečně nevím, ale asi bych byl proti vydání.","f":"petrtyl.jpg"},
{"j":"Vojtěch","p":"Pikal","s":"Piráti","v":"Pro vydání","o1":"","f":"pikal.jpg"},
{"j":"Pavel","p":"Plzák","s":"ANO","v":"Nevím","o1":"Spoléháme na to, že bude ustanoven nový mandátový a imunitní výbor. A vzhledem k tomu, že už byli jednou obviněni a ve spisech budou doplněny věci, tak nám (výbor) řekne novinky ze spisu. A podle jejich doporučení se zařídíme. Budu čekat na to, co mi kolegové, kteří budou nominováni do mandátového a imunitního výboru, řeknou. Nemáme dostatek informací, budu spoléhat na to, co se dozvím od kolegů.","f":"plzak.jpg"},
{"j":"Zdeněk","p":"Podal","s":"SPD","v":"Bez odpovědi","o1":"","f":"podal.jpg"},
{"j":"Ivo","p":"Pojezný","s":"KSČM","v":"Pro vydání","o1":"Vydali jsme jednotné stanovisko klubu, to znamená, že podpoříme vydání, tak jak jsme podpořili vydání žádosti o našeho člena. Budeme v tomto hlasovat, předpokládám, stejně. Ale určitě se k tomu sejde nový klub.","f":"pojezny.jpg"},
{"j":"Jaroslava","p":"Pokorná Jermanová","s":"ANO","v":"Nevím","o1":"V tuhle chvíli musím odpovědět, že nevím. Opravdu nevím.","f":"jermanova.jpg"},
{"j":"Ondřej","p":"Polanský","s":"Piráti","v":"Pro vydání","o1":"","f":"polansky.jpg"},
{"j":"Jan","p":"Pošvář","s":"Piráti","v":"Pro vydání","o1":"","f":"posvar.jpg"},
{"j":"David","p":"Pražák","s":"ANO","v":"Nevím","o1":"Byla by to domluva klubu jako minule. Věřím panu předsedovi to, co říká. Na druhou stranu by měl rozhodnout soud, jestli je vinný, nebo nevinný.","f":"prazak.jpg"},
{"j":"Ondřej","p":"Profant","s":"Piráti","v":"Pro vydání","o1":"Pro vydání.","f":"profant.jpg"},
{"j":"Věra","p":"Procházková","s":"ANO","v":"Nevím","o1":"Vzhledem k tomu, že já si osobně samozřejmě myslím, že to bylo všechno udělané před volbami tak, aby nás jako ANO oslabili, tak nejsem přesvědčena, že bych hlasovala pro vydání. Ale to uvidím, až ta žádost přijde. Zatím nejsem rozhodnuta.","f":"prochazkova.jpg"},
{"j":"Pavel","p":"Pustějovský","s":"ANO","v":"Nevím","o1":"Jako nový poslanec neznám materiály, na základě kterých se o vydání hlasovalo. V tuto chvíli proto nemám jednoznačný názor.","f":"pustejovsky.jpg"},
{"j":"Martin","p":"Půta","s":"STAN","v":"Pro vydání","o1":"Hlasoval bych pro vydání. Dokonce si myslím, že by se na základě tohoto případu, obecně všech případů, měla imunita upravit na to, aby nefungovala zpětně. Měla by fungovat na věci, které se stanou od zvolení dál, ale pokud jde o věci z minulosti, považuji to za přílišný rozsah imunity jako takové. Myslím, že by se měla zaměřit na vyslovování politických názorů ve sněmovně, a obecně politických názorů, tak by to mělo stačit.","f":"puta.jpg"},
{"j":"Karel","p":"Rais","s":"ANO","v":"Bez odpovědi","o1":"","f":"rais.jpg"},
{"j":"Vít","p":"Rakušan","s":"STAN","v":"Pro vydání","o1":"Obecně si myslím, že by se nemělo zasahovat ani imunitou poslance do policejní práce a vyšetřování. Imunita by neměla sloužit jako krytí kohokoli, kdo je trestně stíhán. Tedy obecně říkám, že budu hlasovat pro vydání, pokud to nebude zcela výjimečný případ a za ten rozhodně nepovažuji případ těchto dvou pánů.","f":"rakusan.jpg"},
{"j":"Michal","p":"Ratiborský","s":"ANO","v":"Nevím","o1":"Nejsem rozhodnut, neznám kompletně ten případ, vím jen to, co je v médiích. Ta pravda je určitě někde mezi.","f":"ratiborsky.jpg"},
{"j":"Jan","p":"Richter","s":"ANO","v":"Nevím","o1":"Nechci se k tomuto bodu vyjadřovat. Počkám si, až to bude na stole. Mohla se mezitím spousta věcí udát. Jako bývalý kriminalista vím, že se spisy vyvíjí. Koho jste dneska obvinila, můžete za 14 dní zjistit, že důkazy vás k tomu opravňují a státní zástupce to může zastavit.","f":"richter.jpg"},
{"j":"Olga","p":"Richterová","s":"Piráti","v":"Pro vydání","o1":"Ano, pro vydání.","f":"richterova.jpg"},
{"j":"Miloslav","p":"Rozner","s":"SPD","v":"Bez odpovědi","o1":"","f":"rozner.jpg"},
{"j":"Radek","p":"Rozvoral","s":"SPD","v":"Bez odpovědi","o1":"","f":"rozvoral.png"},
{"j":"Miloslava","p":"Rutová","s":"ANO","v":"Proti vydání","o1":"Když to bylo prvně, tak jsme všichni hlasovali proti. Nevím. Jsem přesvědčena o tom, že to je vyvolaná kauza, takže bych opět hlasovala proti. Nemyslím si, že by to bylo nutné. ","f":"rutova.jpg"},
{"j":"Pavel","p":"Růžička","s":"ANO","v":"Nevím","o1":"Je to věc složitá. Nemám na to úplně přesný vlastní názor. To, co proběhlo médii, se mi zdá zvláštní. Neumím přesně si vysvětlit, proč policie žádala o vydání v předchozím volebním období, když to mohla učinit teď, a teď se nic neděje. Nechám si tu danou věc vysvětlit, jak to vůbec je.","f":"ruzicka.jpg"},
{"j":"Jan","p":"Řehounek","s":"ANO","v":"Nevím","o1":"Váš dotaz je relevantní, ale předčasný. Příští pondělí začne ustavující schůze, v jejímž průběhu snad bude ustanoven i mandátní a imunitní výbor. Tam bude mít ANO své zástupce, kteří se budou moci seznámit s policejním spisem. A přestože nebudou moci nic konkrétního prozradit, bude pro mě důležité, zda pro ně osobně bude policejní spis zárukou nestranného a apolitického směru vyšetřování. Podle těchto informací budu vést i svoje rozhodování.","f":"rehounek.jpg"},
{"j":"Petr","p":"Sadovský","s":"ANO","v":"Pro vydání","o1":"Je to poměrně těžší rozhodnutí, protože ty věci, které se projednávaly, by měla rozhodovat policie. Rád bych se rozhodl, až budu mít více informací, ale pravděpodobně ano. Je to o tom, aby se mohli obhájit.","f":"sadovsky.jpg"},
{"j":"Jan","p":"Schiller","s":"ANO","v":"Nevím","o1":"Ono spíš záleží, jakým stylem se zažádá, jaký stylem to bude prezentováno, jak to bude vypadat. To, co bylo teď posledně, s tím jsem moc nesouhlasil. Ale třeba si páni policisti s tím dají trochu víc práce. Hlavně by měla trošku víc vypovídat o skutečnosti, a ne o dojmech. (Na vás to působilo tak, že je to dojmologie?) Na mě to tak působilo, ale to nemá s panem Babišem ani s panem Faltýnkem moc společného, takhle bych postupoval u všech.","f":"schiller.jpg"},
{"j":"Karel","p":"Schwarzenberg","s":"TOP 09","v":"Pro vydání","o1":"Stejně.","f":"schwarzenberg.jpg"},
{"j":"Jan","p":"Skopeček","s":"ODS","v":"Pro vydání","o1":"Pokud se nezmění relevantní věci, budu hlasovat, tak jak jsem hlasoval při předcházejícím hlasování. To by nedávalo žádnou logiku, kdybych se při stejné žádosti, při stejných argumentech, rozhodoval jinak než před pár měsíci.","f":"skopecek.jpg"},
{"j":"Bohuslav","p":"Sobotka","s":"ČSSD","v":"Bez odpovědi","o1":"","f":"sobotka.jpg"},
{"j":"Pavel","p":"Staněk","s":"ANO","v":"Pro vydání","o1":"Už tím, že pan Babiš i pan Faltýnek hlasovali pro svoje vlastní vydání, tak dali jasně najevo, že věří v nezávislost soudů a celého procesu, který je s tím spojený. Já bych se k tomu přidal.","f":"stanek.jpg"},
{"j":"Antonín","p":"Staněk","s":"ČSSD","v":"Pro vydání","o1":"Pokud nebudou mandátovým a imunitním výborem předloženy nové skutečnosti, tak ano.","f":"stanek2.jpg"},
{"j":"Zbyněk","p":"Stanjura","s":"ODS","v":"Bez odpovědi","o1":"","f":"stanjura.jpg"},
{"j":"Martin","p":"Stropnický","s":"ANO","v":"Nevím","o1":"Odpovídali jsme již mnohokrát. Rozhodneme se až poté, co bude známa formulace zdůvodnění žádosti.","f":"stropnicky.jpg"},
{"j":"Jiří","p":"Strýček","s":"ANO","v":"Pro vydání","o1":"V tomto případě bych hlasoval spíše pro vydání.","f":"strycek.jpg"},
{"j":"Bohuslav","p":"Svoboda","s":"ODS","v":"Pro vydání","o1":"Stejně, jako jsem hlasoval předtím - pro vydání.","f":"svoboda.jpg"},
{"j":"Lucie","p":"Šafránková","s":"SPD","v":"Bez odpovědi","o1":"","f":"safrankova.jpg"},
{"j":"Karla","p":"Šlechtová","s":"ANO","v":"Bez odpovědi","o1":"","f":"slechtova.jpg"},
{"j":"Lubomír","p":"Španěl","s":"SPD","v":"Nevím","o1":"To bez jednání nové sněmovny, imunitního výboru atd. neumím zatím odpovědět... Rozhodoval bych se na základě dostupných informací a faktů, které zatím nemám k dispozici","f":"spanel.jpg"},
{"j":"Julius","p":"Špičák","s":"ANO","v":"Nevím","o1":"Nepředjímal bych. Obecně bych řekl, že s výkladem celé situace předsedou Andrejem Babišem souzním, rozumím tomu. Slyšel jsem podobný výklad i od lidí zcela na Babišovi nezávislých, například od pana Havlíčka, předsedy asociace podnikatelů, to je, myslím, velmi srozumitelný výklad. Nemám s tím zásadní problém, nepředjímal bych, co přijde, nebo nepřijde do sněmovny.","f":"spicak.jpg"},
{"j":"David","p":"Štolpa","s":"ANO","v":"Nevím","o1":"Prozatím jsem neměl možnost se s celou záležitostí blíže seznámit, proto nebudu předjímat, jak bych hlasoval.","f":"stolpa.jpg"},
{"j":"Dan","p":"Ťok","s":"ANO","v":"Bez odpovědi","o1":"","f":"tok.jpg"},
{"j":"Petr","p":"Třešňák","s":"Piráti","v":"Pro vydání","o1":"","f":"tresnak.jpg"},
{"j":"Karel","p":"Tureček","s":"ANO","v":"Proti vydání","o1":"Já jsem celkem konzervativní člověk a v tomto ohledu bude moje jednání totožné s jednáním před dvěma měsíci. Tj. budu proti vydání pana Babiše a Faltýnka.","f":"turecek.jpg"},
{"j":"František","p":"Vácha","s":"TOP 09","v":"Pro vydání","o1":"Určitě pro vydání.","f":"vacha.jpg"},
{"j":"Kateřina","p":"Valachová","s":"ČSSD","v":"Nevím","o1":"Já se nevyjádřím, jelikož jsem byla nominována jako členka mandátového a imunitního výboru za sociální demokracii. Myslím si, že mi tak nepřísluší se k tomu vyjádřit v tomto ohledu dříve, než se seznámím se spisem. Nechám si to po nastudování spisu, pokud budu členkou mandátového a imunitního výboru.","f":"valachova.jpg"},
{"j":"Vlastimil","p":"Válek","s":"TOP 09","v":"Pro vydání","o1":"Hlasoval bych pro. Myslím, že poslanecká imunita se týká toho, co je spácháno na půdě sněmovny, co se týká politických názorů. Ale nemůže to být podezření z trestného činu, dopravního přestupku. Poslanec se má chovat stejně jako každý jiný občan. Musel bych mít hrozně silný důvod a podezření - a netýká se to nikoho konkrétního - že stíhání má politický podtext, a to teď nemám. Nemyslím si, že naše justice a policie je stejná jako za dob komunismu. Myslím, že jsou nezávislé, a pokud se pustí do vyšetřování někoho, tak je to kvůli podezření.","f":"valek.jpg"},
{"j":"Jiří","p":"Valenta","s":"KSČM","v":"Pro vydání","o1":"Já se domnívám, že názor nezměníme. Byli jsme striktně pro vydání, jako jsme byli pro vydání i našeho kolegy (Jaroslava) Borky. Jestli se chce pan Babiš očistit, tak má jedinečnou příležitost. Už při prvním hlasování jsme byli zajedno a ani jsme to nijak extra neprojednávali, bylo to víceméně jasné. My jsme variantu, že by nebyl vydán, vlastně vůbec nebrali v potaz. ","f":"valenta.jpg"},
{"j":"Helena","p":"Válková","s":"ANO","v":"Bez odpovědi","o1":"","f":"valkova.jpg"},
{"j":"Jiří","p":"Ventruba","s":"ODS","v":"Bez odpovědi","o1":"","f":"ventruba.jpg"},
{"j":"Ondřej","p":"Veselý","s":"ČSSD","v":"Pro vydání","o1":"Obecně jsem pro to, aby když se politici dopustili věcí, ve kterých orgány činné v trestním stíhání spatřují znaky trestného činu, tak abychom hlasovali pro vydání. Kdyby se to stalo nedej bože i mně, tak bych hlasoval i pro svoje vydání.","f":"vesely.jpg"},
{"j":"Radovan","p":"Vích","s":"SPD","v":"Bez odpovědi","o1":"","f":"vich.jpg"},
{"j":"Jana","p":"Vildumetzová","s":"ANO","v":"Bez odpovědi","o1":"","f":"vildumetzova.jpg"},
{"j":"Adam","p":"Vojtěch","s":"ANO","v":"Nevím","o1":"Nerad bych předjímal, zase to beru z pohledu právníka. Nejdříve bych se chtěl seznámit s těmi dokumenty. Neviděl jsem je, neměl jsem k tomu logicky přístup. Máte na mysli policejní žádost o vydání? Ani žádost, ani obvinění. Jak je to konstruováno, jak je relevantní. Nerad bych tak vykřikoval, jak budu hlasovat, bez znalosti věci.","f":"vojtech.jpg"},
{"j":"Lubomír","p":"Volný","s":"SPD","v":"Bez odpovědi","o1":"","f":"volny.jpg"},
{"j":"Jan","p":"Volný","s":"ANO","v":"Nevím","o1":"Ještě jsem žádost neviděl, určitě ji dostaneme od kolegů z výboru. Původní žádost mě vůbec neuspokojila. Obě ty problematiky znám, nastudoval jsem si je velice důkladně a myslím, že v oboru jsem také něco zažil. Tak mi to nepřipadalo věcné. Spíš podle toho, jestli se něco změnilo nebo doplnilo, tak budeme reagovat.","f":"volny2.jpg"},
{"j":"Radek","p":"Vondráček","s":"ANO","v":"Nevím","o1":"Jsme hodně zvědavý, dám na to, co bude v nové žádosti. Mám výhrady k tomu, co policie udělala za dva měsíce. V podstatě poslala jeden dopis, usnesení o zahájení trestního stíhání. Já mám obecné informace od kolegy Faltýnka a Babiše v tom smyslu, že v tom spisu není nic, co se týče dokazování, zavinění, že je to opravdu velice chabé. A mě jako právníka to zajímá. Budu se rozhodovat podle toho. Je zřejmé, že to má politický podtext. Velice zřejmé. ","f":"vondracek.jpg"},
{"j":"Ivo","p":"Vondrák","s":"ANO","v":"Nevím","o1":"Myslím si, že by měli mít možnost se obhájit před soudy. Tady je ale otázka další komunikace. Trochu se bojím, že tyto věci se zneužívají. Sám zažívám na vlastní kůži, co to je zneužití takovýchto nástrojů, ať už jsou to média, nebo orgány činné v trestním řízení. (Takže byste byl případně pro vydání?) Ano, ale je to otázka dohody na klubu poslaneckém, takže v tom nejsem úplně vyhraněný.","f":"vondrak.jpg"},
{"j":"Miloslava","p":"Vostrá","s":"KSČM","v":"Pro vydání","o1":"Určitě zopakuju své hlasování, takže budu pro vydání. Myslím, že u politika neplatí presumpce neviny a sněmovna nerozhoduje o vině a nevině. Pan Babiš a pan Faltýnek mají mít možnost, aby se očistili.","f":"vostra.jpg"},
{"j":"Petr","p":"Vrána","s":"ANO","v":"Proti vydání","o1":"Na tohle bych zatím nerad odpověděl napřímo, protože na to nemám úplně jednoznačný názor. Rád bych to pak diskutoval v rámci poslaneckého klubu. Názor, který sdílí náš poslanecký klub, že je to účelové, s tím naprosto souhlasím. Určitě bych se přikláněl k variantě nezvednout ruku.","f":"vrana.jpg"},
{"j":"Veronika","p":"Vrecionová","s":"ODS","v":"Pro vydání","o1":"Ano, zvednu (ruku pro vydání; pozn. red.).","f":"vrecionova.jpg"},
{"j":"Marek","p":"Výborný","s":"KDU-ČSL","v":"Pro vydání","o1":"Jednoznačně vydat u obou zmíněných. ","f":"vyborny.jpg"},
{"j":"Tomáš","p":"Vymazal","s":"Piráti","v":"Pro vydání","o1":"","f":"vymazal.jpg"},
{"j":"Rostislav","p":"Vyzula","s":"ANO","v":"Nevím","o1":"Myslím si, že to je zase na jednání klubu. Klub se musí domluvit, je to tak závažná věc, že není možné, aby si každý jednal sám podle svého.","f":"vyzula.jpg"},
{"j":"Jan","p":"Zahradník","s":"ODS","v":"Pro vydání","o1":"Budu hlasovat pro vydání.","f":"zahradnik.jpg"},
{"j":"Lubomír","p":"Zaorálek","s":"ČSSD","v":"Pro vydání","o1":"Pro vydání.","f":"zaoralek.jpg"},
{"j":"Radek","p":"Zlesák","s":"ANO","v":"Pro vydání","o1":"Budu hlasovat pro vydání.","f":"zlesak.jpg"},
{"j":"Pavel","p":"Žáček","s":"ODS","v":"Pro vydání","o1":"Jednoznačně.","f":"zacek.jpg"}]